Probabilidade e Estatística
…
Gráfico de Barras

Dados categóricos ou discretos.

Exibir a proporção de cada categoria em relação ao todo. Facilita a comparação de partes com o todo.

Gráfico de Barras

require(tidyverse)
precp.mes.total = dados %>% group_by(cidade,month) %>%
  summarise(total = sum(precp)|> round())  
precp.mes.total

# A tibble: 168 × 3
# Groups:   cidade [14]
   cidade   month total
   <chr>    <chr> <dbl>
 1 Barcelos 01     1842
 2 Barcelos 02     2117
 3 Barcelos 03     3240
 4 Barcelos 04     4359
 5 Barcelos 05     3985
 6 Barcelos 06     2910
 7 Barcelos 07     2545
 8 Barcelos 08     1468
 9 Barcelos 09     1304
10 Barcelos 10     1265
# ℹ 158 more rows
…
